CU Physio Meta-Analysis Workflow Template
…
At this point, we should look into any rows that do not have an effect and attempt to figure out why.

full_df %>% 
    filter(is.na(eff)) %>% 
    select(citation, correlation_vals, cohens_d, eff, eff_se)

## # A tibble: 28 x 5
##    citation               correlation_vals cohens_d   eff eff_se
##    <chr>                             <dbl>    <dbl> <dbl>  <dbl>
##  1 de Wied et at., 2012                 NA       NA    NA     NA
##  2 de Wied et at., 2012                 NA       NA    NA     NA
##  3 de Wied et at., 2012                 NA       NA    NA     NA
##  4 Fanti & Kimonis, 2017                NA       NA    NA     NA
##  5 Hammerton et al., 2018               NA       NA    NA     NA
##  6 Kavish et al., 2017                  NA       NA    NA     NA
##  7 Loeber et al., 2007                  NA       NA    NA     NA
##  8 Munoz et al., 2013                   NA       NA    NA     NA
##  9 Munoz et al., 2013                   NA       NA    NA     NA
## 10 Pratzlich et al., 2019               NA       NA    NA     NA
## #  with 18 more rows
…
